…
These plots map the residuals and predicted values for the two alternative models in the same way that I did earlier for my own model.

``` r
#I am developing test and train subsets for cross-validation
cv_df = crossv_mc(birthweight_data, 100) 

cv_df %>% pull(train) %>% .[[1]] %>% as_tibble
```

    ## # A tibble: 3,473 x 20
    ##    babysex bhead blength   bwt delwt fincome frace gaweeks malform menarche
    ##    <fct>   <int>   <int> <int> <int>   <int> <fct>   <dbl> <fct>      <int>
    ##  1 2          34      51  3629   177      35 1        39.9 0             13
    ##  2 1          34      48  3062   156      65 2        25.9 0             14
    ##  3 2          36      50  3345   148      85 1        39.9 0             12
    ##  4 1          33      52  3374   129      55 1        40.7 0             12
    ##  5 2          33      46  2523   126      96 2        40.3 0             14
    ##  6 2          33      49  2778   140       5 1        37.4 0             12
    ##  7 1          33      50  3459   169      75 2        40.7 0             12
    ##  8 1          35      51  3459   146      55 1        39.4 0             12
    ##  9 1          36      53  3629   147      75 1        41.3 0             11
    ## 10 1          35      51  3544   129      65 1        39.6 0             12
    ## # ... with 3,463 more rows, and 10 more variables: mheight <int>,
    ## #   momage <int>, mrace <fct>, parity <int>, pnumlbw <int>, pnumsga <int>,
    ## #   ppbmi <dbl>, ppwt <int>, smoken <dbl>, wtgain <int>

``` r
cv_df %>% pull(test) %>% .[[1]] %>% as_tibble
```

    ## # A tibble: 869 x 20
    ##    babysex bhead blength   bwt delwt fincome frace gaweeks malform menarche
    ##    <fct>   <int>   <int> <int> <int>   <int> <fct>   <dbl> <fct>      <int>
    ##  1 1          34      52  3062   157      55 1        40   0             14
    ##  2 2          34      52  3374   156       5 1        41.6 0             13
    ##  3 1          36      52  3515   146      85 1        40.3 0             11
    ##  4 2          35      51  3317   130      55 1        43.4 0             13
    ##  5 2          35      48  3175   158      75 1        39.7 0             13
    ##  6 2          35      57  3374   147      45 1        39.6 0             12
    ##  7 2          35      52  3289   135      55 1        40.6 0             13
    ##  8 2          34      49  3118   161      45 2        38.9 0             10
    ##  9 1          35      53  3175   130      45 1        40.4 0             13
    ## 10 2          34      54  3345   130      95 1        42.1 0             10
    ## # ... with 859 more rows, and 10 more variables: mheight <int>,
    ## #   momage <int>, mrace <fct>, parity <int>, pnumlbw <int>, pnumsga <int>,
    ## #   ppbmi <dbl>, ppwt <int>, smoken <dbl>, wtgain <int>
…
